<?xml version="1.0" encoding="UTF-8" standalone="no"?>
<svg width="425" height="290" viewBox="0 0 425 290" fill="none" xmlns="http://www.w3.org/2000/svg" class="footer__artwork">
  <mask id="footferrisparty_msk" maskUnits="userSpaceOnUse" x="0" y="0" width="425" height="290">
    <path fill="#fff" d="M0 0h425v290H0z"></path>
  </mask>
  <g mask="url(#footferrisparty_msk)">
    <path transform="rotate(180 397.547 290)" fill="url(#paint0_linear)" fill-opacity=".2" d="M397.547 270h370.525v263.268H397.547z"></path>
    <g filter="url(#footferrispartyflt0_d)">
      <ellipse cx="211.578" cy="376.911" rx="214.162" ry="213.596" transform="rotate(-90 211.578 376.911)" fill="#5BD2AB"></ellipse>
    </g>
    <g filter="url(#footferrispartyflt1_f)">
      <ellipse cx="211.95" cy="232.976" rx="131.983" ry="20.577" fill="#000" fill-opacity=".7"></ellipse>
    </g>
    <path d="M320.452 178.508a.598.598 0 00-.839-.5c-24.617 11.017-63.9 18.177-108.209 18.269-44.31-.095-83.592-7.252-108.21-18.269a.598.598 0 00-.839.5l-2.108 24.25a.591.591 0 00.156.455l25.576 27.903c.386.422 1.087.113 1.039-.459l-2.225-25.585a.59.59 0 01.722-.638c22.072 5.337 68.724 15.491 85.892 15.123 17.167.368 63.819-9.786 85.891-15.123a.59.59 0 01.722.638l-2.225 25.585c-.048.569.653.878 1.039.459l25.576-27.903a.595.595 0 00.156-.455l-2.114-24.25z" fill="#091016"></path>
    <path d="M352.73 183.362c-.76-4.216-3.36-7.86-6.962-10.181-6.795-4.378-13.227-5.342-13.227-5.342a2.59 2.59 0 01-1.192-3.905l9.125-13.02c1.093-1.561.185-3.726-1.695-4.04l-15.308-2.56a2.592 2.592 0 01-1.941-3.606l6.48-14.58c.779-1.749-.548-3.71-2.461-3.638l-15.416.56a2.589 2.589 0 01-2.617-3.169l3.572-15.547c.432-1.875-1.26-3.549-3.132-3.096l-14.96 3.614a2.59 2.59 0 01-3.196-2.605l.548-15.886c.066-1.935-1.931-3.255-3.686-2.435l-13.945 6.52a2.59 2.59 0 01-3.654-1.941l-2.488-15.638c-.306-1.916-2.533-2.83-4.094-1.677l-12.412 9.152a2.59 2.59 0 01-3.968-1.195l-5.384-14.736c-.668-1.827-3.036-2.294-4.345-.857l-10.436 11.451a2.591 2.591 0 01-4.132-.407l-8.055-13.352a2.553 2.553 0 00-2.055-1.24h-.006a2.995 2.995 0 00-.164-.006c-.057 0-.111.003-.168.006h-.006c-.8.048-1.581.458-2.054 1.24l-8.058 13.346a2.592 2.592 0 01-4.133.407l-10.436-11.45c-1.311-1.438-3.68-.97-4.345.856L176.94 79.14a2.587 2.587 0 01-3.968 1.195l-12.412-9.151c-1.563-1.153-3.788-.24-4.094 1.677l-2.488 15.637a2.59 2.59 0 01-3.653 1.94l-13.946-6.519c-1.752-.82-3.752.503-3.686 2.435l.548 15.886a2.586 2.586 0 01-3.195 2.605l-14.961-3.614c-1.871-.453-3.563 1.221-3.132 3.096l3.572 15.547a2.59 2.59 0 01-2.617 3.169l-15.416-.56c-1.913-.069-3.237 1.889-2.461 3.638l6.48 14.58a2.588 2.588 0 01-1.937 3.606l-15.308 2.56c-1.878.314-2.785 2.479-1.695 4.04l9.124 13.02a2.59 2.59 0 01-1.192 3.905s-6.432.964-13.227 5.342c-3.599 2.321-6.201 5.965-6.962 10.181-.77 4.261-.105 9.035 1.77 13.335 4.851 11.115 41.971 52.703 45.379 52.661.078-.095.248-.332.186-.593l-15.524-58.21a.647.647 0 01.877-.761l19.102 8.017c.189.078.33.245.381.443 4.86 19.273 19.515 30.838 27.447 34.12a.663.663 0 01.402.554c3.434 34.487 29.96 32.616 40.623 31.864.62-.045 1.189-.084 1.695-.114.533-.03.836-.652.515-1.081l-14.131-18.82a.647.647 0 01.566-1.033l31.23 2.314a.634.634 0 00.686-.643c-.231-8.502-4.699-25.517-21.21-30.802-16.566-5.303-28.32.725-32.446 4.654a.635.635 0 01-.692.119c-5.357-2.308-15.38-8.277-17.021-15.574-.098-.443.309-.791.755-.701 60.097 11.999 79.492 12.29 141.236 0 .447-.09.854.255.755.701-1.641 7.297-11.667 13.266-17.021 15.574a.636.636 0 01-.692-.119c-4.126-3.929-15.879-9.954-32.445-4.654-16.512 5.288-20.98 22.3-21.21 30.802a.633.633 0 00.685.643l31.23-2.314a.647.647 0 01.566 1.033l-14.131 18.82c-.32.429-.015 1.051.515 1.081.506.03 1.072.069 1.695.114 10.664.752 37.192 2.623 40.624-31.864a.667.667 0 01.401-.554c7.932-3.282 22.588-14.847 27.448-34.12a.655.655 0 01.38-.443l19.102-8.014a.648.648 0 01.877.761l-15.523 58.211c-.063.26.108.497.186.592 3.407.042 40.527-41.546 45.378-52.661 1.875-4.297 2.54-9.071 1.77-13.332z" fill="#18283B"></path>
    <path d="M352.73 183.362c-.76-4.216-3.36-7.86-6.962-10.181-6.795-4.378-13.227-5.342-13.227-5.342a2.59 2.59 0 01-1.192-3.905l9.125-13.02c1.093-1.561.185-3.726-1.695-4.04l-15.308-2.56a2.592 2.592 0 01-1.941-3.606l6.48-14.58c.779-1.749-.548-3.71-2.461-3.638l-15.416.56a2.589 2.589 0 01-2.617-3.169l3.572-15.547c.432-1.875-1.26-3.549-3.132-3.096l-14.96 3.614a2.59 2.59 0 01-3.196-2.605l.548-15.886c.066-1.935-1.931-3.255-3.686-2.435l-13.945 6.52a2.59 2.59 0 01-3.654-1.941l-2.488-15.638c-.306-1.916-2.533-2.83-4.094-1.677l-12.412 9.152a2.59 2.59 0 01-3.968-1.195l-5.384-14.736c-.668-1.827-3.036-2.294-4.345-.857l-10.436 11.451a2.591 2.591 0 01-4.132-.407l-8.055-13.352a2.553 2.553 0 00-2.055-1.24h-.006a2.995 2.995 0 00-.164-.006c-.057 0-.111.003-.168.006h-.006c-.8.048-1.581.458-2.054 1.24l-8.058 13.346a2.592 2.592 0 01-4.133.407l-10.436-11.45c-1.311-1.438-3.68-.97-4.345.856L176.94 79.14a2.587 2.587 0 01-3.968 1.195l-12.412-9.151c-1.563-1.153-3.788-.24-4.094 1.677l-2.488 15.637a2.59 2.59 0 01-3.653 1.94l-13.946-6.519c-1.752-.82-3.752.503-3.686 2.435l.548 15.886a2.586 2.586 0 01-3.195 2.605l-14.961-3.614c-1.871-.453-3.563 1.221-3.132 3.096l3.572 15.547a2.59 2.59 0 01-2.617 3.169l-15.416-.56c-1.913-.069-3.237 1.889-2.461 3.638l6.48 14.58a2.588 2.588 0 01-1.937 3.606l-15.308 2.56c-1.878.314-2.785 2.479-1.695 4.04l9.124 13.02a2.59 2.59 0 01-1.192 3.905s-6.432.964-13.227 5.342c-3.599 2.321-6.201 5.965-6.962 10.181-.77 4.261-.105 9.035 1.77 13.335 4.851 11.115 41.971 52.703 45.379 52.661.078-.095.248-.332.186-.593l-15.524-58.21a.647.647 0 01.877-.761l19.102 8.017c.189.078.33.245.381.443 4.86 19.273 19.515 30.838 27.447 34.12a.663.663 0 01.402.554c3.434 34.487 29.96 32.616 40.623 31.864.62-.045 1.189-.084 1.695-.114.533-.03.836-.652.515-1.081l-14.131-18.82a.647.647 0 01.566-1.033l31.23 2.314a.634.634 0 00.686-.643c-.231-8.502-4.699-25.517-21.21-30.802-16.566-5.303-28.32.725-32.446 4.654a.635.635 0 01-.692.119c-5.357-2.308-15.38-8.277-17.021-15.574-.098-.443.309-.791.755-.701 60.097 11.999 79.492 12.29 141.236 0 .447-.09.854.255.755.701-1.641 7.297-11.667 13.266-17.021 15.574a.636.636 0 01-.692-.119c-4.126-3.929-15.879-9.954-32.445-4.654-16.512 5.288-20.98 22.3-21.21 30.802a.633.633 0 00.685.643l31.23-2.314a.647.647 0 01.566 1.033l-14.131 18.82c-.32.429-.015 1.051.515 1.081.506.03 1.072.069 1.695.114 10.664.752 37.192 2.623 40.624-31.864a.667.667 0 01.401-.554c7.932-3.282 22.588-14.847 27.448-34.12a.655.655 0 01.38-.443l19.102-8.014a.648.648 0 01.877.761l-15.523 58.211c-.063.26.108.497.186.592 3.407.042 40.527-41.546 45.378-52.661 1.875-4.297 2.54-9.071 1.77-13.332z" fill="url(#paint1_radial)" fill-opacity=".3"></path>
    <g filter="url(#footferrispartyflt2_d)">
      <path d="M209.296 142.824c35.479-.296 49.448-.287 68.019-.296 12.334-.005 15.494 7.978 15.494 11.551v19.474c0 2.296-.632 4.548-1.825 6.499l-8.618 12.17a12.076 12.076 0 01-2.332 2.791c-.867.757-1.984 1.545-3.133 1.86-2.202.602-29.75 3.067-36.022 3.625-2.117.188-4.261-.16-6.176-1.097a11.592 11.592 0 01-4.368-3.717c-3.645-5.095-12.677-25.21-20.052-25.152-8.242.067-16.383 20.057-20.029 25.152a11.612 11.612 0 01-4.367 3.717c-1.915.937-4.06 1.625-6.177 1.437-6.272-.556-33.82-3.363-36.021-3.965-1.152-.315-2.267-1.103-3.133-1.86a11.876 11.876 0 01-2.332-2.791l-8.624-12.17a12.472 12.472 0 01-1.825-6.499v-19.474c0-3.573 3.16-11.556 15.494-11.551 18.571.009 32.54 0 68.016.296" stroke="#FC0FF5" stroke-width="3.667" stroke-miterlimit="10" stroke-linecap="round" stroke-linejoin="round"></path>
    </g>
    <g filter="url(#footferrispartyflt3_d)">
      <path d="M276.081 189.282H236.88c-2.599 0-4.706-2.136-4.706-4.773 0-2.636 2.107-4.772 4.706-4.772h42.958c2.599 0 4.705-2.136 4.705-4.772 0-2.637-2.106-4.773-4.705-4.773h-52.693c-2.599 0-6.613-2.136-6.613-4.772s2.107-4.772 4.706-4.772h54.327c2.6 0 4.706-2.136 4.706-4.773 0-2.636-2.106-4.772-4.706-4.772h-70.707 2.321-70.435c-2.599 0-4.705 2.136-4.705 4.772 0 2.637 2.106 4.773 4.705 4.773h54.055c2.599 0 4.705 2.136 4.705 4.772s-2.106 4.772-4.705 4.772h-54.055c-2.599 0-4.705 2.136-4.705 4.773 0 2.636 2.106 4.772 4.705 4.772h42.958c2.599 0 4.705 2.136 4.705 4.772 0 2.637-2.106 4.773-4.705 4.773h-39.743" stroke="#10D4B4" stroke-width="3.667" stroke-miterlimit="10" stroke-linecap="round" stroke-linejoin="round"></path>
    </g>
  </g>
  <defs>
    <filter id="footferrispartyflt0_d" x="-22.018" y="142.75" width="467.192" height="468.324" filterUnits="userSpaceOnUse" color-interpolation-filters="sRGB">
      <feFlood flood-opacity="0" result="BackgroundImageFix"></feFlood>
      <feColorMatrix in="SourceAlpha" values="0 0 0 0 0 0 0 0 0 0 0 0 0 0 0 0 0 0 127 0"></feColorMatrix>
      <feOffset></feOffset>
      <feGaussianBlur stdDeviation="10"></feGaussianBlur>
      <feColorMatrix values="0 0 0 0 0.0627451 0 0 0 0 0.831373 0 0 0 0 0.705882 0 0 0 1 0"></feColorMatrix>
      <feBlend in2="BackgroundImageFix" result="effect1_dropShadow"></feBlend>
      <feBlend in="SourceGraphic" in2="effect1_dropShadow" result="shape"></feBlend>
    </filter>
    <filter id="footferrispartyflt1_f" x="55.522" y="187.954" width="312.855" height="90.044" filterUnits="userSpaceOnUse" color-interpolation-filters="sRGB">
      <feFlood flood-opacity="0" result="BackgroundImageFix"></feFlood>
      <feBlend in="SourceGraphic" in2="BackgroundImageFix" result="shape"></feBlend>
      <feGaussianBlur stdDeviation="12.223" result="effect1_foregroundBlur"></feGaussianBlur>
    </filter>
    <filter id="footferrispartyflt2_d" x="110.663" y="125.417" width="199.258" height="92.564" filterUnits="userSpaceOnUse" color-interpolation-filters="sRGB">
      <feFlood flood-opacity="0" result="BackgroundImageFix"></feFlood>
      <feColorMatrix in="SourceAlpha" values="0 0 0 0 0 0 0 0 0 0 0 0 0 0 0 0 0 0 127 0"></feColorMatrix>
      <feOffset></feOffset>
      <feGaussianBlur stdDeviation="7.639"></feGaussianBlur>
      <feColorMatrix values="0 0 0 0 0.988235 0 0 0 0 0.0588235 0 0 0 0 0.960784 0 0 0 1 0"></feColorMatrix>
      <feBlend in2="BackgroundImageFix" result="effect1_dropShadow"></feBlend>
      <feBlend in="SourceGraphic" in2="effect1_dropShadow" result="shape"></feBlend>
    </filter>
    <filter id="footferrispartyflt3_d" x="125.038" y="140.103" width="170.505" height="60.179" filterUnits="userSpaceOnUse" color-interpolation-filters="sRGB">
      <feFlood flood-opacity="0" result="BackgroundImageFix"></feFlood>
      <feColorMatrix in="SourceAlpha" values="0 0 0 0 0 0 0 0 0 0 0 0 0 0 0 0 0 0 127 0"></feColorMatrix>
      <feOffset></feOffset>
      <feGaussianBlur stdDeviation="4.583"></feGaussianBlur>
      <feColorMatrix values="0 0 0 0 0.0627451 0 0 0 0 0.831373 0 0 0 0 0.705882 0 0 0 1 0"></feColorMatrix>
      <feBlend in2="BackgroundImageFix" result="effect1_dropShadow"></feBlend>
      <feBlend in="SourceGraphic" in2="effect1_dropShadow" result="shape"></feBlend>
    </filter>
    <radialGradient id="paint1_radial" cx="0" cy="0" r="1" gradientUnits="userSpaceOnUse" gradientTransform="rotate(108.085 97.566 116.562) scale(149.338 206.109)">
      <stop stop-color="#FFD027"></stop>
      <stop offset="1" stop-color="#5E00FF" stop-opacity=".46"></stop>
    </radialGradient>
    <linearGradient id="paint0_linear" x1="582.809" y1="270" x2="582.809" y2="533.268" gradientUnits="userSpaceOnUse">
      <stop stop-color="#10D4B4"></stop>
      <stop offset="1" stop-color="#E5E5E5" stop-opacity="0"></stop>
    </linearGradient>
  </defs>
</svg>